1999 100000 FRA $2847
1999 100000 LATE $3531
1998 110000 FRA $2972
1998 110000 LATE $3686
1997 120000 FRA $3098
1997 120000 LATE $3841
1996 130000 FRA $3222
1996 130000 LATE $3996
1995 140000 FRA $3347
1995 140000 LATE $4151
1994 150000 FRA $3383
1994 150000 LATE $4194
1993 160000 FRA $3383
1993 160000 LATE $4194
1992 170000 FRA $3383
1992 170000 LATE $4194
1991 180000 FRA $3383
1991 180000 LATE $4194
1990 190000 FRA $3383
1990 190000 LATE $4194
1989 1000000 FRA $3381
1989 1000000 LATE $4194
1988 2000000 FRA $3381
1988 2000000 LATE $4194